{
  "name": "My techy tools",
  "version": "0.1.0",
  "description": "Central storage for all the infos I want to hit up",
  "title": "Custom apiDoc browser title",
  "url" : "https://api.github.com/v1"
}